<?xml version="1.0" encoding="utf-8"?>
<!-- Generator: Adobe Illustrator 16.0.0, SVG Export Plug-In . SVG Version: 6.00 Build 0)  -->
<!DOCTYPE svg PUBLIC "-//W3C//DTD SVG 1.1//EN" "http://www.w3.org/Graphics/SVG/1.1/DTD/svg11.dtd">
<svg version="1.1" id="Layer_1" xmlns="http://www.w3.org/2000/svg" xmlns:xlink="http://www.w3.org/1999/xlink" x="0px" y="0px"
	 width="3000px" height="3000px" viewBox="0 0 3000 3000" enable-background="new 0 0 3000 3000" xml:space="preserve">
<g id="Layer_2">
</g>
<path d="M2867.574,1381.477c0-0.771,0-1.156-0.385-1.541c-0.386-0.386-0.771-0.771-1.541-1.155
	c-0.771-0.386-1.926-0.386-3.467-0.386h-3.852v6.164h4.236c1.926,0,3.467-0.385,4.236-0.771
	C2867.189,1383.403,2867.574,1382.632,2867.574,1381.477z"/>
<path fill="#FFFFFF" d="M2871.811,1371.847c-2.695-1.541-5.393-1.926-8.088-1.926s-5.393,0.771-8.088,1.926
	c-2.697,1.541-4.623,3.467-6.164,6.163s-2.312,5.393-2.312,8.089s0.771,5.393,2.312,8.088c1.541,2.697,3.467,4.622,6.164,6.163
	c2.695,1.54,5.393,2.311,8.088,2.311s5.777-0.771,8.088-2.311c2.697-1.541,4.623-3.467,6.164-6.163
	c1.541-2.695,2.311-5.392,2.311-8.088s-0.771-5.393-2.311-8.089C2876.434,1375.313,2874.508,1373.002,2871.811,1371.847z
	 M2868.729,1396.5l-1.926-3.466c-1.541-2.697-2.696-4.237-3.467-5.008c-0.771-0.385-1.541-0.771-2.696-0.771h-1.926v8.859h-3.852
	v-20.8h7.318c2.696,0,4.236,0,5.393,0.385c1.156,0.386,1.926,1.156,2.696,1.926c0.771,0.771,1.155,1.926,1.155,3.082
	c0,1.541-0.385,2.696-1.541,3.852c-1.155,1.156-2.695,1.926-4.621,1.926c0.77,0.385,1.54,0.771,1.926,1.156
	c0.77,0.77,1.926,2.311,3.081,4.237l2.696,4.237h-4.237V1396.5z"/>
<path d="M2880.67,1376.084c-1.926-3.082-4.236-5.393-7.318-7.319c-3.081-1.54-6.548-2.696-9.629-2.696
	c-3.467,0-6.549,0.771-9.629,2.696c-3.082,1.541-5.779,4.237-7.32,7.319c-1.926,3.081-2.696,6.163-2.696,9.629
	c0,3.467,0.771,6.548,2.696,9.63s4.238,5.392,7.32,7.317c3.08,1.541,6.547,2.696,10.014,2.696s6.934-0.771,10.015-2.696
	c3.081-1.54,5.778-4.235,7.318-7.317c1.927-3.082,2.696-6.163,2.696-9.63C2883.367,1382.632,2882.596,1379.165,2880.67,1376.084z
	 M2877.975,1393.802c-1.541,2.695-3.467,4.623-6.164,6.162c-2.695,1.541-5.393,2.312-8.088,2.312s-5.777-0.771-8.088-2.312
	c-2.697-1.54-4.623-3.467-6.164-6.162c-1.541-2.696-2.312-5.393-2.312-8.089s0.771-5.393,2.312-8.089s3.467-4.622,6.164-6.163
	c2.695-1.54,5.393-1.926,8.088-1.926c2.697,0,5.393,0.771,8.088,1.926c2.697,1.541,4.623,3.467,6.164,6.163s2.311,5.393,2.311,8.089
	C2880.285,1388.795,2879.516,1391.492,2877.975,1393.802z"/>
<path d="M2098.346,1361.832c-43.911,0-159.083,13.096-159.083,122.105c0,108.624,115.173,122.106,159.083,122.106
	c43.912,0,159.084-13.097,159.084-122.106S2142.258,1361.832,2098.346,1361.832z M2098.346,1564.442
	c-37.363,0-89.748-16.178-89.748-80.891c0-64.712,52.386-80.89,89.748-80.89c37.364,0,89.75,16.178,89.75,80.89
	C2188.48,1548.265,2135.709,1564.442,2098.346,1564.442z"/>
<polygon points="2648.4,1498.575 2809.796,1498.575 2809.796,1457.359 2648.4,1457.359 2648.4,1408.825 2824.048,1408.825 
	2824.048,1367.609 2580.606,1367.609 2580.606,1599.494 2831.751,1599.494 2831.751,1558.279 2648.4,1558.279 "/>
<polygon points="2480.071,1529.004 2478.915,1529.004 2347.565,1367.609 2274.764,1367.609 2274.764,1599.494 2339.477,1599.494 
	2339.477,1434.248 2340.247,1434.248 2475.448,1599.494 2544.398,1599.494 2544.398,1367.609 2480.071,1367.609 "/>
<path d="M2867.189,1388.41c-0.386-0.385-1.156-0.77-1.926-1.155c1.926,0,3.467-0.771,4.621-1.926
	c1.156-1.155,1.541-2.312,1.541-3.852c0-1.156-0.385-1.927-1.155-3.082c-0.771-0.771-1.54-1.54-2.696-1.926
	c-1.155-0.385-3.082-0.385-5.393-0.385h-7.318v20.8h3.467v-8.859h1.926c1.155,0,2.311,0.385,2.696,0.771
	c0.771,0.771,2.312,2.311,3.467,5.007l1.926,3.467h4.237l-2.697-4.236C2869.115,1390.721,2867.959,1389.18,2867.189,1388.41z"/>
<path fill="#FFFFFF" d="M2862.566,1384.943h-4.236v-6.163h3.852c1.541,0,2.696,0,3.467,0.385s1.155,0.771,1.541,1.155
	c0.385,0.386,0.385,1.156,0.385,1.541c0,0.771-0.385,1.542-1.155,2.312C2865.648,1384.558,2864.492,1384.943,2862.566,1384.943z"/>
<polygon points="1444.29,1468.53 1375.727,1367.609 1325.265,1367.609 1294.065,1367.609 1235.901,1367.609 1109.942,1461.981 
	1109.942,1367.609 1040.609,1367.609 1040.609,1599.494 1109.942,1599.494 1109.942,1520.915 1141.915,1497.804 1244.375,1599.494 
	1333.354,1599.494 1190.45,1462.75 1305.236,1381.861 1408.468,1512.056 1408.468,1599.494 1477.418,1599.494 1477.418,1512.441 
	1587.967,1367.609 1509.772,1367.609 "/>
<polygon points="1945.424,1405.744 1945.424,1367.609 1692.739,1367.609 1692.739,1408.825 1859.142,1408.825 1688.117,1558.279 
	1688.117,1599.494 1946.58,1599.494 1946.58,1558.279 1772.474,1558.279 "/>
<path d="M930.059,1467.374l-80.505-13.865c-13.865-2.312-35.053-6.163-35.053-24.267c0-20.8,31.201-27.734,57.779-27.734
	c60.475,0,65.868,24.652,67.794,34.667h65.868c-0.386-28.504-27.734-74.728-129.04-74.728c-107.469,0-127.113,45.453-127.113,71.261
	c0,50.846,51.616,59.319,105.157,68.179l35.438,5.777c35.053,5.778,59.706,10.785,59.706,28.89c0,24.651-36.595,30.044-68.95,30.044
	c-60.476,0-69.72-24.652-70.104-37.364h-66.253c0,28.89,20.8,77.424,141.364,77.424c28.89,0,130.581-6.163,130.581-75.883
	C1016.728,1488.175,975.126,1475.078,930.059,1467.374z"/>
<path fill="#FFFFFF" d="M566.439,1324.467c-5.779-19.644-24.652-11.555-24.652-11.555s-245.753,52.001-252.301,53.542
	s-9.245,1.155-15.408,10.4c-6.162,9.245-143.677,221.099-154.076,237.662c-10.015,16.563,0,21.185,10.4,21.57
	c280.42,11.17,475.713,49.305,503.446,52.386c28.889,3.467,27.733-28.118,25.036-35.438
	C656.573,1644.947,572.602,1343.727,566.439,1324.467z"/>
<g>
	<g>
		<g>
			<defs>
				<path id="SVGID_1_" d="M543.327,1320.23c-11.557,1.541-21.571,4.622-35.439,7.704c-5.393,1.541-11.17,2.697-17.332,4.238
					c-5.393,0.77-14.253,1.926-15.794,5.776c-0.77,2.312-0.385,6.163-0.385,9.244c-0.385,5.393-0.385,10.016-0.771,14.252
					c21.57-3.852,42.371-8.089,63.942-11.941c0.385,4.237,0.771,8.474,1.927,13.097c7.318-1.541,15.792-1.541,19.259-6.549
					c-1.926-11.941-4.622-23.496-7.703-34.667c-0.771-0.771-2.312-0.771-3.853-0.771h-3.852V1320.23z"/>
			</defs>
			<clipPath id="SVGID_2_">
				<use xlink:href="#SVGID_1_"  overflow="visible"/>
			</clipPath>
			
				<linearGradient id="SVGID_3_" gradientUnits="userSpaceOnUse" x1="-10.583" y1="-17.9053" x2="-8.3209" y2="-17.9053" gradientTransform="matrix(-23.9813 131.0634 131.0634 23.9813 2605.8206 3172.9907)">
				<stop  offset="0" style="stop-color:#F78C28"/>
				<stop  offset="1" style="stop-color:#F36D34"/>
			</linearGradient>
			<polygon clip-path="url(#SVGID_2_)" fill="url(#SVGID_3_)" points="565.668,1321.771 555.268,1377.624 465.518,1361.062 
				475.918,1305.209 			"/>
		</g>
	</g>
</g>
<g>
	<g>
		<g>
			<defs>
				<path id="SVGID_4_" d="M460.896,1338.334c-9.244,1.541-19.645,4.237-30.43,6.163c-10.016,2.312-21.57,3.467-27.733,8.475
					c-2.311,11.17-5.777,20.8-8.089,31.201c1.155,1.926,3.467,2.696,5.778,1.926c0.77-3.467,1.54-8.089,2.695-11.556
					c20.801-4.237,41.216-7.704,61.631-11.556c0.386-8.089,1.541-15.408,1.541-23.497c-0.771-0.386-2.312-1.156-3.467-1.156H460.896
					L460.896,1338.334z"/>
			</defs>
			<clipPath id="SVGID_5_">
				<use xlink:href="#SVGID_4_"  overflow="visible"/>
			</clipPath>
			
				<linearGradient id="SVGID_6_" gradientUnits="userSpaceOnUse" x1="-10.583" y1="-18.2378" x2="-8.3227" y2="-18.2378" gradientTransform="matrix(-23.9813 131.0634 131.0634 23.9813 2570.9456 3166.6157)">
				<stop  offset="0" style="stop-color:#F78C28"/>
				<stop  offset="1" style="stop-color:#F36D34"/>
			</linearGradient>
			<polygon clip-path="url(#SVGID_5_)" fill="url(#SVGID_6_)" points="475.147,1340.261 463.977,1400.351 386.168,1385.713 
				396.954,1326.008 			"/>
		</g>
	</g>
</g>
<g>
	<g>
		<g>
			<defs>
				<path id="SVGID_7_" d="M391.562,1353.357c-6.549,0.386-14.253,3.082-22.727,4.237c-3.852,0.771-7.704,1.541-11.556,2.312
					c-3.852,0.77-7.703,0.77-11.17,2.311c-5.393,1.926-6.549,7.704-8.475,11.94c-1.541,3.467-2.696,6.163-4.237,9.63
					c11.556-1.541,23.111-2.697,32.356,2.696c1.926,0.771,3.467,4.237,5.777,4.622c1.927,0,8.475-1.54,11.556-2.311
					c2.312-0.386,4.237-2.696,5.393-4.237c1.926-4.238,2.696-10.015,4.237-15.023c1.54-5.777,2.696-11.17,3.852-16.178
					c-0.771-0.385-1.926-0.771-2.696-0.771C392.331,1352.972,391.946,1352.972,391.562,1353.357"/>
			</defs>
			<clipPath id="SVGID_8_">
				<use xlink:href="#SVGID_7_"  overflow="visible"/>
			</clipPath>
			
				<linearGradient id="SVGID_9_" gradientUnits="userSpaceOnUse" x1="-10.5825" y1="-18.4961" x2="-8.3229" y2="-18.4961" gradientTransform="matrix(-23.9813 131.0634 131.0634 23.9813 2542.8206 3161.4282)">
				<stop  offset="0" style="stop-color:#F78C28"/>
				<stop  offset="1" style="stop-color:#F36D34"/>
			</linearGradient>
			<polygon clip-path="url(#SVGID_8_)" fill="url(#SVGID_9_)" points="403.116,1354.127 394.257,1403.047 326.464,1390.721 
				335.323,1341.801 			"/>
		</g>
	</g>
</g>
<g>
	<g>
		<g>
			<defs>
				<path id="SVGID_10_" d="M331.472,1365.299c-9.245,1.926-21.186,4.236-30.431,5.777c-3.466,1.155-7.317,1.155-10.399,1.926
					c-3.853,1.926-5.393,6.163-7.704,10.015c-3.467,5.393-6.549,10.016-9.63,15.408c-1.541,2.311-3.852,4.621-3.852,8.088
					c2.696,1.54,5.777,0,8.474-0.386c2.697-0.385,6.164,0,8.475-1.155c0.771-0.386,2.312-2.312,3.853-3.467
					c11.17-7.703,21.956-13.096,36.594-16.177c1.541-2.696,2.696-6.164,4.622-9.63c1.541-3.467,3.467-6.163,3.853-10.015
					c-0.386-0.385-1.541-0.771-2.312-0.771C333.012,1364.913,331.856,1365.299,331.472,1365.299"/>
			</defs>
			<clipPath id="SVGID_11_">
				<use xlink:href="#SVGID_10_"  overflow="visible"/>
			</clipPath>
			
				<linearGradient id="SVGID_12_" gradientUnits="userSpaceOnUse" x1="-10.582" y1="-18.7422" x2="-8.3224" y2="-18.7422" gradientTransform="matrix(-23.9813 131.0634 131.0634 23.9813 2517.4456 3156.8032)">
				<stop  offset="0" style="stop-color:#F78C28"/>
				<stop  offset="1" style="stop-color:#F36D34"/>
			</linearGradient>
			<polygon clip-path="url(#SVGID_11_)" fill="url(#SVGID_12_)" points="343.412,1366.454 333.782,1419.996 261.752,1406.899 
				271.767,1353.357 			"/>
		</g>
	</g>
</g>
<g>
	<g>
		<g>
			<defs>
				<path id="SVGID_13_" d="M547.179,1366.454c-2.696,0.385-5.393,0.771-7.318,0.771c-0.385,4.236,2.696,10.015,1.926,13.866
					c0,1.542-2.696,3.852-4.623,5.778c-11.556,13.481-23.882,27.733-34.667,40.06c12.326-0.771,24.652-2.311,37.364-3.852
					c8.475-0.771,31.2-0.771,32.741-9.245c0-2.312-1.927-8.089-2.697-11.556c-1.926-8.475-3.465-13.867-5.777-23.496
					c-0.385-3.467-1.541-9.63-2.695-11.556c-1.541-1.926-3.852-2.312-6.163-2.312
					C552.187,1364.913,549.49,1365.299,547.179,1366.454"/>
			</defs>
			<clipPath id="SVGID_14_">
				<use xlink:href="#SVGID_13_"  overflow="visible"/>
			</clipPath>
			
				<linearGradient id="SVGID_15_" gradientUnits="userSpaceOnUse" x1="-10.583" y1="-17.7832" x2="-8.3208" y2="-17.7832" gradientTransform="matrix(-23.9813 131.0634 131.0634 23.9813 2620.5706 3175.6782)">
				<stop  offset="0" style="stop-color:#F78C28"/>
				<stop  offset="1" style="stop-color:#F36D34"/>
			</linearGradient>
			<polygon clip-path="url(#SVGID_14_)" fill="url(#SVGID_15_)" points="583.387,1366.839 570.29,1439.255 491.325,1425.003 
				504.808,1352.586 			"/>
		</g>
	</g>
</g>
<g>
	<g>
		<g>
			<defs>
				<path id="SVGID_16_" d="M398.109,1391.492c-6.163,1.541-7.318,7.317-9.245,13.48c-2.311,10.4-5.777,22.726-7.703,32.741
					c1.926,3.853,6.163,2.312,10.015,1.927c11.94-1.541,24.652-2.312,35.438-3.853c11.17-11.17,22.726-23.497,33.511-34.668
					c1.926-1.927,3.467-3.853,2.312-6.549c-21.956,2.696-44.683,6.549-66.639,9.63c0.386-3.852,2.696-9.244,2.312-12.326l0,0
					V1391.492z"/>
			</defs>
			<clipPath id="SVGID_17_">
				<use xlink:href="#SVGID_16_"  overflow="visible"/>
			</clipPath>
			
				<linearGradient id="SVGID_18_" gradientUnits="userSpaceOnUse" x1="-10.5835" y1="-18.2251" x2="-8.3199" y2="-18.2251" gradientTransform="matrix(-23.9813 131.0634 131.0634 23.9813 2571.0706 3166.6157)">
				<stop  offset="0" style="stop-color:#F78C28"/>
				<stop  offset="1" style="stop-color:#F36D34"/>
			</linearGradient>
			<polygon clip-path="url(#SVGID_17_)" fill="url(#SVGID_18_)" points="472.836,1393.033 461.28,1455.819 372.687,1439.641 
				383.857,1376.854 			"/>
		</g>
	</g>
</g>
<g>
	<g>
		<g>
			<defs>
				<path id="SVGID_19_" d="M372.687,1395.728c1.926,5.393,1.926,13.096,1.156,19.259c-13.867,1.926-27.733,3.852-41.601,5.777
					c1.926-7.704-3.467-10.015-10.4-9.245c-2.696,6.164-6.549,13.097-8.475,19.26c13.097,2.311,26.963,3.467,36.593,9.245
					c1.926,1.541,3.467,3.467,5.393,3.852c2.312,0.386,7.319-0.385,10.016-1.54c8.475-1.541,9.244-6.549,11.556-14.252
					c2.696-10.4,5.778-21.571,8.089-31.586c-0.385-1.539-1.926-1.926-3.852-1.926
					C378.079,1394.187,374.998,1395.343,372.687,1395.728"/>
			</defs>
			<clipPath id="SVGID_20_">
				<use xlink:href="#SVGID_19_"  overflow="visible"/>
			</clipPath>
			
				<linearGradient id="SVGID_21_" gradientUnits="userSpaceOnUse" x1="-10.582" y1="-18.5259" x2="-8.3228" y2="-18.5259" gradientTransform="matrix(-23.9813 131.0634 131.0634 23.9813 2539.1956 3160.8032)">
				<stop  offset="0" style="stop-color:#F78C28"/>
				<stop  offset="1" style="stop-color:#F36D34"/>
			</linearGradient>
			<polygon clip-path="url(#SVGID_20_)" fill="url(#SVGID_21_)" points="393.102,1395.728 381.932,1456.974 303.737,1442.722 
				314.908,1381.477 			"/>
		</g>
	</g>
</g>
<g>
	<g>
		<g>
			<defs>
				<path id="SVGID_22_" d="M263.678,1414.988c-2.696,2.312-4.237,6.164-6.163,9.63c-4.237,6.548-8.475,13.481-12.327,19.645
					c-2.312,3.467-5.393,6.548-5.393,10.399c4.623,2.312,11.942-0.385,17.72-0.385c0-12.326,4.622-20.03,9.63-27.734
					c3.467-4.622,6.547-9.245,10.015-13.097c1.541-1.54,3.467-2.311,3.467-3.467
					C274.077,1411.136,267.529,1410.366,263.678,1414.988"/>
			</defs>
			<clipPath id="SVGID_23_">
				<use xlink:href="#SVGID_22_"  overflow="visible"/>
			</clipPath>
			
				<linearGradient id="SVGID_24_" gradientUnits="userSpaceOnUse" x1="-10.584" y1="-18.8828" x2="-8.319" y2="-18.8828" gradientTransform="matrix(-23.9813 131.0634 131.0634 23.9813 2502.9456 3154.1157)">
				<stop  offset="0" style="stop-color:#F78C28"/>
				<stop  offset="1" style="stop-color:#F36D34"/>
			</linearGradient>
			<polygon clip-path="url(#SVGID_23_)" fill="url(#SVGID_24_)" points="288.716,1411.521 279.085,1464.292 231.321,1455.433 
				240.95,1402.662 			"/>
		</g>
	</g>
</g>
<g>
	<g>
		<g>
			<defs>
				<path id="SVGID_25_" d="M306.819,1428.47c2.312-4.622,5.393-9.63,7.318-15.023
					C307.59,1413.833,298.344,1423.848,306.819,1428.47"/>
			</defs>
			<clipPath id="SVGID_26_">
				<use xlink:href="#SVGID_25_"  overflow="visible"/>
			</clipPath>
			
				<linearGradient id="SVGID_27_" gradientUnits="userSpaceOnUse" x1="-10.5801" y1="-18.7095" x2="-8.3257" y2="-18.7095" gradientTransform="matrix(-23.9813 131.0634 131.0634 23.9813 2522.6956 3157.7407)">
				<stop  offset="0" style="stop-color:#F78C28"/>
				<stop  offset="1" style="stop-color:#F36D34"/>
			</linearGradient>
			<polygon clip-path="url(#SVGID_26_)" fill="url(#SVGID_27_)" points="316.834,1413.833 313.753,1431.166 295.648,1427.699 
				298.729,1410.75 			"/>
		</g>
	</g>
</g>
<g>
	<g>
		<g>
			<defs>
				<path id="SVGID_28_" d="M562.586,1427.314c-21.569,1.926-43.142,5.393-66.253,7.318c-6.162,7.319-13.48,15.023-20.029,22.725
					c-1.926,2.313-5.393,5.778-6.163,8.089c-1.926,7.705,0.771,17.334-1.155,26.579c33.126-0.771,65.482-2.312,98.608-3.853
					c1.541,7.319,2.696,14.252,4.237,21.185c9.244,0.386,21.57,0.771,23.111-6.548c0.385-2.311-0.771-6.547-1.541-9.244
					c-4.622-18.875-9.63-34.668-13.867-52.387c-0.771-3.467-1.54-7.319-2.311-9.245c-1.927-2.696-6.549-4.237-11.94-4.237h-2.697
					V1427.314z"/>
			</defs>
			<clipPath id="SVGID_29_">
				<use xlink:href="#SVGID_28_"  overflow="visible"/>
			</clipPath>
			
				<linearGradient id="SVGID_30_" gradientUnits="userSpaceOnUse" x1="-10.5835" y1="-17.7495" x2="-8.32" y2="-17.7495" gradientTransform="matrix(-23.9813 131.0634 131.0634 23.9813 2623.3206 3176.1782)">
				<stop  offset="0" style="stop-color:#F78C28"/>
				<stop  offset="1" style="stop-color:#F36D34"/>
			</linearGradient>
			<polygon clip-path="url(#SVGID_29_)" fill="url(#SVGID_30_)" points="609.58,1430.011 591.09,1532.47 453.191,1507.434 
				472.065,1404.973 			"/>
		</g>
	</g>
</g>
<g>
	<g>
		<g>
			<defs>
				<path id="SVGID_31_" d="M418.909,1442.337c-5.393,0.77-11.94,1.541-18.104,2.311c-6.163,0.386-13.097,0.386-17.719,1.926
					c-6.548,2.312-7.318,10.4-9.63,18.874c-2.696,11.17-4.623,17.718-7.704,28.504c-1.541,6.548-6.163,16.177,0,19.259
					c0.771-2.312,1.541-5.393,2.312-8.089c0.386-2.312,0.386-6.163,1.926-8.474c0.386-1.541,4.237-4.237,6.163-6.548
					c14.252-15.022,27.349-28.889,41.601-43.527c0.771-1.54,3.467-3.467,1.541-3.467h-0.386V1442.337z"/>
			</defs>
			<clipPath id="SVGID_32_">
				<use xlink:href="#SVGID_31_"  overflow="visible"/>
			</clipPath>
			
				<linearGradient id="SVGID_33_" gradientUnits="userSpaceOnUse" x1="-10.5825" y1="-18.3154" x2="-8.3212" y2="-18.3154" gradientTransform="matrix(-23.9813 131.0634 131.0634 23.9813 2562.3206 3164.9907)">
				<stop  offset="0" style="stop-color:#F78C28"/>
				<stop  offset="1" style="stop-color:#F36D34"/>
			</linearGradient>
			<polygon clip-path="url(#SVGID_32_)" fill="url(#SVGID_33_)" points="433.547,1444.648 419.295,1523.611 346.879,1510.516 
				361.131,1431.166 			"/>
		</g>
	</g>
</g>
<g>
	<g>
		<g>
			<defs>
				<path id="SVGID_34_" d="M357.665,1448.885c2.312,4.622,3.852,10.015,3.467,16.947c-0.771,16.949-9.63,33.127-16.948,44.297
					c-0.771,1.926-2.697,3.852-2.312,5.393c10.4-0.771,11.556-10.399,14.252-20.029c2.696-10.401,5.393-18.875,8.475-28.89
					c0.386-2.696,4.237-11.941,3.467-15.021c-0.386-2.312-2.697-2.696-5.778-2.696C361.131,1448.5,359.205,1448.5,357.665,1448.885"
					/>
			</defs>
			<clipPath id="SVGID_35_">
				<use xlink:href="#SVGID_34_"  overflow="visible"/>
			</clipPath>
			
				<linearGradient id="SVGID_36_" gradientUnits="userSpaceOnUse" x1="-10.5835" y1="-18.4551" x2="-8.3205" y2="-18.4551" gradientTransform="matrix(-23.9813 131.0634 131.0634 23.9813 2547.6956 3162.3032)">
				<stop  offset="0" style="stop-color:#F78C28"/>
				<stop  offset="1" style="stop-color:#F36D34"/>
			</linearGradient>
			<polygon clip-path="url(#SVGID_35_)" fill="url(#SVGID_36_)" points="381.161,1450.811 368.45,1520.145 329.546,1513.212 
				342.257,1443.493 			"/>
		</g>
	</g>
</g>
<g>
	<g>
		<g>
			<defs>
				<path id="SVGID_37_" d="M257.13,1458.9c-7.704,0.771-19.646,0.771-25.038,5.776c-3.466,3.467-5.777,8.475-8.474,13.482
					c-6.164,9.246-11.557,17.719-17.72,26.964c-1.927,2.696-8.474,11.555-7.318,15.021c1.541,1.927,4.623,1.541,8.474,0.771
					c2.311-0.385,4.622-0.771,6.163-0.385c2.696-11.171,6.549-21.185,12.327-28.888c13.48-0.771,28.504-2.312,41.216-3.468
					c-1.927,5.394-2.312,15.408,2.696,16.949c4.621-10.4,10.4-20.801,15.407-31.2c-8.475-2.697-15.407-3.852-20.801-7.705
					c-2.311-1.926-4.622-7.318-7.318-7.318L257.13,1458.9L257.13,1458.9z"/>
			</defs>
			<clipPath id="SVGID_38_">
				<use xlink:href="#SVGID_37_"  overflow="visible"/>
			</clipPath>
			
				<linearGradient id="SVGID_39_" gradientUnits="userSpaceOnUse" x1="-10.5811" y1="-18.9233" x2="-8.3212" y2="-18.9233" gradientTransform="matrix(-23.9813 131.0634 131.0634 23.9813 2500.0706 3153.6157)">
				<stop  offset="0" style="stop-color:#F78C28"/>
				<stop  offset="1" style="stop-color:#F36D34"/>
			</linearGradient>
			<polygon clip-path="url(#SVGID_38_)" fill="url(#SVGID_39_)" points="296.419,1461.211 282.552,1537.479 185.868,1519.76 
				199.736,1443.493 			"/>
		</g>
	</g>
</g>
<g>
	<g>
		<g>
			<defs>
				<path id="SVGID_40_" d="M276.774,1507.434c11.941,0.386,25.807-6.163,29.274-16.177c3.853-10.4-6.164-13.867-14.252-15.793
					C286.404,1485.863,281.396,1496.649,276.774,1507.434"/>
			</defs>
			<clipPath id="SVGID_41_">
				<use xlink:href="#SVGID_40_"  overflow="visible"/>
			</clipPath>
			
				<linearGradient id="SVGID_42_" gradientUnits="userSpaceOnUse" x1="-10.5859" y1="-18.7002" x2="-8.3185" y2="-18.7002" gradientTransform="matrix(-23.9813 131.0634 131.0634 23.9813 2521.5706 3157.5532)">
				<stop  offset="0" style="stop-color:#F78C28"/>
				<stop  offset="1" style="stop-color:#F36D34"/>
			</linearGradient>
			<polygon clip-path="url(#SVGID_41_)" fill="url(#SVGID_42_)" points="315.679,1476.619 308.745,1513.981 270.996,1507.049 
				277.93,1469.686 			"/>
		</g>
	</g>
</g>
<g>
	<g>
		<g>
			<defs>
				<path id="SVGID_43_" d="M446.259,1493.182c3.852-0.385,7.703-0.385,11.556-0.771c0-4.236,1.155-10.4,0-13.867
					C454.348,1483.553,449.725,1487.789,446.259,1493.182"/>
			</defs>
			<clipPath id="SVGID_44_">
				<use xlink:href="#SVGID_43_"  overflow="visible"/>
			</clipPath>
			
				<linearGradient id="SVGID_45_" gradientUnits="userSpaceOnUse" x1="-10.5864" y1="-18.0532" x2="-8.3161" y2="-18.0532" gradientTransform="matrix(-23.9813 131.0634 131.0634 23.9813 2589.6956 3169.9907)">
				<stop  offset="0" style="stop-color:#F78C28"/>
				<stop  offset="1" style="stop-color:#F36D34"/>
			</linearGradient>
			<polygon clip-path="url(#SVGID_44_)" fill="url(#SVGID_45_)" points="461.28,1478.93 458.199,1495.494 443.563,1492.797 
				446.644,1476.233 			"/>
		</g>
	</g>
</g>
<g>
	<g>
		<g>
			<defs>
				<path id="SVGID_46_" d="M574.527,1520.145c-0.386,0.386-0.386,0.386,0,0.771c2.311,13.867,5.777,26.963,8.474,40.831
					c-37.748-1.541-77.423-3.853-115.172-4.237c-0.386,18.104-1.156,35.053-1.156,52.771c0,6.163-0.771,13.096,0,17.719
					c1.541,5.777,6.163,11.556,12.327,13.481c5.393,1.54,11.94,1.54,18.103,2.311c36.979,4.622,73.571,10.015,109.396,15.794
					c6.163,0.77,13.097,2.695,18.104,2.695c5.777-0.385,11.169-4.622,11.939-9.63c1.926-5.777-1.541-12.326-3.467-18.874
					c-9.244-29.659-18.103-59.705-26.962-89.365c-1.541-5.393-1.926-11.556-4.237-15.406c-3.467-7.318-12.327-9.63-23.497-9.63
					h-3.852V1520.145L574.527,1520.145z"/>
			</defs>
			<clipPath id="SVGID_47_">
				<use xlink:href="#SVGID_46_"  overflow="visible"/>
			</clipPath>
			
				<linearGradient id="SVGID_48_" gradientUnits="userSpaceOnUse" x1="-10.584" y1="-17.5674" x2="-8.32" y2="-17.5674" gradientTransform="matrix(-23.9813 131.0634 131.0634 23.9813 2641.5706 3179.4907)">
				<stop  offset="0" style="stop-color:#F78C28"/>
				<stop  offset="1" style="stop-color:#F36D34"/>
			</linearGradient>
			<polygon clip-path="url(#SVGID_47_)" fill="url(#SVGID_48_)" points="664.662,1524.767 633.462,1693.481 440.48,1658.044 
				471.681,1489.33 			"/>
		</g>
	</g>
</g>
<g>
	<g>
		<g>
			<defs>
				<path id="SVGID_49_" d="M335.323,1523.997c-1.927,0-5.778,4.621-8.089,6.547c-18.874,18.104-43.527,31.201-76.268,32.356
					c-7.32,13.481-13.483,26.963-20.031,40.831c-1.927,3.852-6.162,11.17-2.312,15.407c1.926,2.311,8.089,2.311,13.867,2.311h4.623
					c13.867,0.386,26.963,1.541,40.83,2.312c7.318,0,15.022,1.926,21.57,1.541c9.63-1.541,11.941-10.4,15.022-19.26
					c6.163-21.955,12.326-44.297,19.259-66.639c1.541-3.852,3.467-8.475,2.312-11.555c-1.156-3.467-3.853-4.238-7.318-4.238
					C337.635,1523.227,336.094,1523.227,335.323,1523.997"/>
			</defs>
			<clipPath id="SVGID_50_">
				<use xlink:href="#SVGID_49_"  overflow="visible"/>
			</clipPath>
			
				<linearGradient id="SVGID_51_" gradientUnits="userSpaceOnUse" x1="-10.583" y1="-18.6729" x2="-8.3209" y2="-18.6729" gradientTransform="matrix(-23.9813 131.0634 131.0634 23.9813 2525.0706 3158.1782)">
				<stop  offset="0" style="stop-color:#F78C28"/>
				<stop  offset="1" style="stop-color:#F36D34"/>
			</linearGradient>
			<polygon clip-path="url(#SVGID_50_)" fill="url(#SVGID_51_)" points="364.983,1526.693 342.642,1647.258 206.283,1622.221 
				228.24,1501.656 			"/>
		</g>
	</g>
</g>
<g>
	<g>
		<g>
			<defs>
				<path id="SVGID_52_" d="M353.042,1541.716c-5.778,20.03-10.4,38.905-16.178,59.319c-1.926,8.089-6.163,19.26-0.771,23.882
					c4.237,3.852,18.104,3.467,25.808,3.852c22.727,1.927,43.526,4.237,64.327,6.549c4.236,0.385,9.243,1.541,13.096,0.771
					c13.097-0.771,13.097-12.326,13.481-25.808c0.385-19.646,1.541-34.282,1.926-53.156c-32.74-1.927-66.638-1.541-99.764-2.312
					c2.696-10.015,6.163-21.187,7.704-31.2C355.354,1527.078,354.968,1533.626,353.042,1541.716"/>
			</defs>
			<clipPath id="SVGID_53_">
				<use xlink:href="#SVGID_52_"  overflow="visible"/>
			</clipPath>
			
				<linearGradient id="SVGID_54_" gradientUnits="userSpaceOnUse" x1="-10.5811" y1="-18.25" x2="-8.32" y2="-18.25" gradientTransform="matrix(-23.9813 131.0634 131.0634 23.9813 2574.1956 3167.1782)">
				<stop  offset="0" style="stop-color:#F78C28"/>
				<stop  offset="1" style="stop-color:#F36D34"/>
			</linearGradient>
			<polygon clip-path="url(#SVGID_53_)" fill="url(#SVGID_54_)" points="474.377,1527.464 450.495,1659.198 310.286,1633.392 
				334.553,1502.041 			"/>
		</g>
	</g>
</g>
<g>
	<g>
		<g>
			<defs>
				<path id="SVGID_55_" d="M204.742,1528.233c-2.695,0-5.776,0-9.243,0.386c-2.696,0.385-6.549,3.467-8.476,5.776
					c-4.623,5.779-8.475,13.098-13.481,20.031c-11.171,16.563-21.571,32.74-33.126,49.689c-1.927,3.467-5.778,8.089-3.853,11.556
					c1.541,1.926,7.318,1.926,11.941,1.926h4.237c13.867,0.385,23.497,0.385,34.667,1.155c6.164,0.386,13.098,1.541,18.874,0.386
					c9.245-1.541,13.868-12.325,17.334-20.03c6.162-11.94,13.096-24.651,18.104-36.593c-17.718-2.312-29.66-13.097-28.89-34.282
					C209.75,1528.619,207.438,1528.233,204.742,1528.233"/>
			</defs>
			<clipPath id="SVGID_56_">
				<use xlink:href="#SVGID_55_"  overflow="visible"/>
			</clipPath>
			
				<linearGradient id="SVGID_57_" gradientUnits="userSpaceOnUse" x1="-10.5825" y1="-19.083" x2="-8.32" y2="-19.083" gradientTransform="matrix(-23.9813 131.0634 131.0634 23.9813 2484.5706 3150.8032)">
				<stop  offset="0" style="stop-color:#F78C28"/>
				<stop  offset="1" style="stop-color:#F36D34"/>
			</linearGradient>
			<polygon clip-path="url(#SVGID_56_)" fill="url(#SVGID_57_)" points="257.9,1531.315 238.254,1638.784 118.46,1616.828 
				138.104,1509.359 			"/>
		</g>
	</g>
</g>
</svg>
